<?xml version="1.0" encoding="UTF-8"?>
<!DOCTYPE svg PUBLIC '-//W3C//DTD SVG 1.0//EN'
          'http://www.w3.org/TR/2001/REC-SVG-20010904/DTD/svg10.dtd'>
<svg fill-opacity="1" xmlns:xlink="http://www.w3.org/1999/xlink" color-rendering="auto" color-interpolation="auto" text-rendering="auto" stroke="black" stroke-linecap="square" width="690" stroke-miterlimit="10" shape-rendering="auto" stroke-opacity="1" fill="black" stroke-dasharray="none" font-weight="normal" stroke-width="1" viewBox="10 0 690 540" height="540" xmlns="http://www.w3.org/2000/svg" font-family="'Dialog'" font-style="normal" stroke-linejoin="miter" font-size="12px" stroke-dashoffset="0" image-rendering="auto"
><!--Generated by the Batik Graphics2D SVG Generator--><defs id="genericDefs"
  /><g
  ><defs id="defs1"
    ><clipPath clipPathUnits="userSpaceOnUse" id="clipPath1"
      ><path d="M0 0 L2147483647 0 L2147483647 2147483647 L0 2147483647 L0 0 Z"
      /></clipPath
      ><clipPath clipPathUnits="userSpaceOnUse" id="clipPath2"
      ><path d="M0 0 L0 210 L240 210 L240 0 Z"
      /></clipPath
      ><clipPath clipPathUnits="userSpaceOnUse" id="clipPath3"
      ><path d="M0 0 L0 190 L300 190 L300 0 Z"
      /></clipPath
      ><clipPath clipPathUnits="userSpaceOnUse" id="clipPath4"
      ><path d="M0 0 L0 50 L80 50 L80 0 Z"
      /></clipPath
      ><clipPath clipPathUnits="userSpaceOnUse" id="clipPath5"
      ><path d="M0 0 L0 20 L150 20 L150 0 Z"
      /></clipPath
      ><clipPath clipPathUnits="userSpaceOnUse" id="clipPath6"
      ><path d="M0 0 L0 50 L90 50 L90 0 Z"
      /></clipPath
      ><clipPath clipPathUnits="userSpaceOnUse" id="clipPath7"
      ><path d="M0 0 L0 20 L200 20 L200 0 Z"
      /></clipPath
      ><clipPath clipPathUnits="userSpaceOnUse" id="clipPath8"
      ><path d="M0 0 L0 80 L100 80 L100 0 Z"
      /></clipPath
      ><clipPath clipPathUnits="userSpaceOnUse" id="clipPath9"
      ><path d="M0 0 L0 50 L100 50 L100 0 Z"
      /></clipPath
      ><clipPath clipPathUnits="userSpaceOnUse" id="clipPath10"
      ><path d="M0 0 L0 50 L30 50 L30 0 Z"
      /></clipPath
      ><clipPath clipPathUnits="userSpaceOnUse" id="clipPath11"
      ><path d="M0 0 L0 30 L310 30 L310 0 Z"
      /></clipPath
      ><clipPath clipPathUnits="userSpaceOnUse" id="clipPath12"
      ><path d="M0 0 L0 70 L80 70 L80 0 Z"
      /></clipPath
      ><clipPath clipPathUnits="userSpaceOnUse" id="clipPath13"
      ><path d="M0 0 L0 110 L100 110 L100 0 Z"
      /></clipPath
      ><clipPath clipPathUnits="userSpaceOnUse" id="clipPath14"
      ><path d="M0 0 L0 110 L90 110 L90 0 Z"
      /></clipPath
    ></defs
    ><g fill="rgb(255,255,170)" fill-opacity="0.4902" transform="translate(220,60)" stroke-opacity="0.4902" stroke="rgb(255,255,170)"
    ><rect x="0.5" y="0.5" clip-path="url(#clipPath2)" width="238.5" rx="20" ry="20" height="208.5" stroke="none"
    /></g
    ><g stroke-dasharray="1,2" stroke-miterlimit="5" transform="translate(220,60)" stroke-linecap="butt"
    ><rect x="0.5" y="0.5" clip-path="url(#clipPath2)" fill="none" width="238.5" rx="20" ry="20" height="208.5"
    /></g
    ><g fill="rgb(255,255,170)" fill-opacity="0.4902" transform="translate(370,330)" stroke-opacity="0.4902" stroke="rgb(255,255,170)"
    ><rect x="0.5" y="0.5" clip-path="url(#clipPath3)" width="298.5" rx="20" ry="20" height="188.5" stroke="none"
    /></g
    ><g stroke-dasharray="1,2" stroke-miterlimit="5" transform="translate(370,330)" stroke-linecap="butt"
    ><rect x="0.5" y="0.5" clip-path="url(#clipPath3)" fill="none" width="298.5" rx="20" ry="20" height="188.5"
    /></g
    ><g fill="rgb(255,255,170)" fill-opacity="0.4902" transform="translate(30,330)" stroke-opacity="0.4902" stroke="rgb(255,255,170)"
    ><rect x="0.5" y="0.5" clip-path="url(#clipPath3)" width="298.5" rx="20" ry="20" height="188.5" stroke="none"
    /></g
    ><g stroke-dasharray="1,2" stroke-miterlimit="5" transform="translate(30,330)" stroke-linecap="butt"
    ><rect x="0.5" y="0.5" clip-path="url(#clipPath3)" fill="none" width="298.5" rx="20" ry="20" height="188.5"
    /></g
    ><g fill="rgb(255,255,255)" fill-opacity="0" transform="translate(580,460)" stroke-opacity="0" stroke="rgb(255,255,255)"
    ><rect x="0.5" y="0.5" clip-path="url(#clipPath4)" width="78.5" rx="10" ry="10" height="48.5" stroke="none"
    /></g
    ><g stroke-width="2" transform="translate(580,460)"
    ><rect x="0.5" y="0.5" clip-path="url(#clipPath4)" fill="none" width="78.5" rx="10" ry="10" height="48.5"
    /></g
    ><g fill="rgb(255,255,255)" fill-opacity="0" transform="translate(380,460)" stroke-opacity="0" stroke="rgb(255,255,255)"
    ><rect x="0.5" y="0.5" clip-path="url(#clipPath4)" width="78.5" rx="10" ry="10" height="48.5" stroke="none"
    /></g
    ><g stroke-width="2" transform="translate(380,460)"
    ><rect x="0.5" y="0.5" clip-path="url(#clipPath4)" fill="none" width="78.5" rx="10" ry="10" height="48.5"
    /></g
    ><g fill="rgb(255,255,255)" fill-opacity="0" transform="translate(500,410)" stroke-opacity="0" stroke="rgb(255,255,255)"
    ><rect x="0.5" width="148.5" height="18.5" y="0.5" clip-path="url(#clipPath5)" stroke="none"
    /></g
    ><g font-family="sans-serif" transform="translate(500,410)"
    ><text x="5" xml:space="preserve" y="16.25" clip-path="url(#clipPath5)" stroke="none"
      >LAB2: 192.168.12.0/24</text
    ></g
    ><g fill="rgb(255,255,255)" fill-opacity="0" transform="translate(40,410)" stroke-opacity="0" stroke="rgb(255,255,255)"
    ><rect x="0.5" width="148.5" height="18.5" y="0.5" clip-path="url(#clipPath5)" stroke="none"
    /></g
    ><g font-family="sans-serif" transform="translate(40,410)"
    ><text x="5" xml:space="preserve" y="16.25" clip-path="url(#clipPath5)" stroke="none"
      >LAB1: 192.168.11.0/24</text
    ></g
    ><g fill="rgb(255,255,255)" fill-opacity="0" transform="translate(240,70)" stroke-opacity="0" stroke="rgb(255,255,255)"
    ><rect x="0.5" y="0.5" clip-path="url(#clipPath6)" width="88.5" rx="10" ry="10" height="48.5" stroke="none"
    /></g
    ><g fill="blue" stroke-width="2" transform="translate(240,70)" stroke="blue"
    ><rect x="0.5" y="0.5" clip-path="url(#clipPath6)" fill="none" width="88.5" rx="10" ry="10" height="48.5"
      /><text x="16" y="14.875" clip-path="url(#clipPath6)" font-family="sans-serif" stroke="none" font-weight="bold" xml:space="preserve"
      >wsproxy</text
      ><text x="12" xml:space="preserve" y="43.375" clip-path="url(#clipPath6)" font-family="sans-serif" stroke="none"
      >172.18.0.2</text
    ></g
    ><g fill="rgb(255,255,255)" fill-opacity="0" transform="translate(40,460)" stroke-opacity="0" stroke="rgb(255,255,255)"
    ><rect x="0.5" y="0.5" clip-path="url(#clipPath4)" width="78.5" rx="10" ry="10" height="48.5" stroke="none"
    /></g
    ><g stroke-width="2" transform="translate(40,460)"
    ><rect x="0.5" y="0.5" clip-path="url(#clipPath4)" fill="none" width="78.5" rx="10" ry="10" height="48.5"
    /></g
    ><g fill="rgb(255,255,255)" fill-opacity="0" transform="translate(350,70)" stroke-opacity="0" stroke="rgb(255,255,255)"
    ><rect x="0.5" y="0.5" clip-path="url(#clipPath6)" width="88.5" rx="10" ry="10" height="48.5" stroke="none"
    /></g
    ><g fill="blue" stroke-width="2" transform="translate(350,70)" stroke="blue"
    ><rect x="0.5" y="0.5" clip-path="url(#clipPath6)" fill="none" width="88.5" rx="10" ry="10" height="48.5"
      /><text x="8" y="14.875" clip-path="url(#clipPath6)" font-family="sans-serif" stroke="none" font-weight="bold" xml:space="preserve"
      >guacamole</text
      ><text x="12" xml:space="preserve" y="43.375" clip-path="url(#clipPath6)" font-family="sans-serif" stroke="none"
      >172.18.0.3</text
    ></g
    ><g fill="rgb(0,0,255)" fill-opacity="0.4902" transform="translate(240,140)" stroke-opacity="0.4902" stroke="rgb(0,0,255)"
    ><rect x="0.5" width="198.5" height="18.5" y="0.5" clip-path="url(#clipPath7)" stroke="none"
    /></g
    ><g fill="white" font-size="10px" font-weight="bold" font-family="sans-serif" transform="translate(240,140)" stroke="white"
    ><text x="24" xml:space="preserve" y="14.375" clip-path="url(#clipPath7)" stroke="none"
      >Docker LAN: 172.18.0.0/16</text
    ></g
    ><g fill="rgb(255,255,255)" fill-opacity="0" transform="translate(290,180)" stroke-opacity="0" stroke="rgb(255,255,255)"
    ><rect x="0.5" y="0.5" clip-path="url(#clipPath8)" width="98.5" rx="16" ry="16" height="78.5" stroke="none"
    /></g
    ><g fill="blue" stroke-width="2" transform="translate(290,180)" stroke="blue"
    ><rect x="0.5" y="0.5" clip-path="url(#clipPath8)" fill="none" width="98.5" rx="16" ry="16" height="78.5"
      /><text x="17" xml:space="preserve" y="15.625" clip-path="url(#clipPath8)" font-family="sans-serif" stroke="none"
      >172.18.0.4</text
      ><text x="15" y="44.125" clip-path="url(#clipPath8)" font-family="sans-serif" stroke="none" font-weight="bold" xml:space="preserve"
      >wireguard</text
      ><text x="9" xml:space="preserve" y="72.625" clip-path="url(#clipPath8)" font-family="sans-serif" stroke="none"
      >10.100.100.1</text
    ></g
    ><g fill="rgb(255,255,255)" fill-opacity="0" transform="translate(470,460)" stroke-opacity="0" stroke="rgb(255,255,255)"
    ><rect x="0.5" y="0.5" clip-path="url(#clipPath9)" width="98.5" rx="10" ry="10" height="48.5" stroke="none"
    /></g
    ><g stroke-width="2" transform="translate(470,460)"
    ><rect x="0.5" y="0.5" clip-path="url(#clipPath9)" fill="none" width="98.5" rx="10" ry="10" height="48.5"
      /><text x="9" xml:space="preserve" y="14.875" clip-path="url(#clipPath9)" font-family="sans-serif" stroke="none"
      >192.168.12.4</text
      ><text x="19" y="43.375" clip-path="url(#clipPath9)" font-family="sans-serif" stroke="none" font-weight="bold" xml:space="preserve"
      >lab2-wks</text
    ></g
    ><g fill="rgb(255,255,255)" fill-opacity="0" transform="translate(240,460)" stroke-opacity="0" stroke="rgb(255,255,255)"
    ><rect x="0.5" y="0.5" clip-path="url(#clipPath4)" width="78.5" rx="10" ry="10" height="48.5" stroke="none"
    /></g
    ><g stroke-width="2" transform="translate(240,460)"
    ><rect x="0.5" y="0.5" clip-path="url(#clipPath4)" fill="none" width="78.5" rx="10" ry="10" height="48.5"
    /></g
    ><g fill="rgb(255,255,255)" fill-opacity="0" transform="translate(130,460)" stroke-opacity="0" stroke="rgb(255,255,255)"
    ><rect x="0.5" y="0.5" clip-path="url(#clipPath9)" width="98.5" rx="10" ry="10" height="48.5" stroke="none"
    /></g
    ><g stroke-width="2" transform="translate(130,460)"
    ><rect x="0.5" y="0.5" clip-path="url(#clipPath9)" fill="none" width="98.5" rx="10" ry="10" height="48.5"
      /><text x="9" xml:space="preserve" y="14.875" clip-path="url(#clipPath9)" font-family="sans-serif" stroke="none"
      >192.168.11.4</text
      ><text x="19" y="43.375" clip-path="url(#clipPath9)" font-family="sans-serif" stroke="none" font-weight="bold" xml:space="preserve"
      >lab1-wks</text
    ></g
    ><g fill="rgb(255,255,255)" fill-opacity="0" transform="translate(390,340)" stroke-opacity="0" stroke="rgb(255,255,255)"
    ><rect x="0.5" y="0.5" clip-path="url(#clipPath8)" width="98.5" rx="16" ry="16" height="78.5" stroke="none"
    /></g
    ><g stroke-width="2" transform="translate(390,340)"
    ><rect x="0.5" y="0.5" clip-path="url(#clipPath8)" fill="none" width="98.5" rx="16" ry="16" height="78.5"
      /><text x="6" xml:space="preserve" y="15.625" clip-path="url(#clipPath8)" font-family="sans-serif" stroke="none"
      >192.168.100.2</text
      ><text x="12" y="44.125" clip-path="url(#clipPath8)" font-family="sans-serif" stroke="none" font-weight="bold" xml:space="preserve"
      >wg-client-2</text
      ><text x="9" xml:space="preserve" y="72.625" clip-path="url(#clipPath8)" font-family="sans-serif" stroke="none"
      >192.168.12.2</text
    ></g
    ><g fill="rgb(255,255,255)" fill-opacity="0" transform="translate(200,340)" stroke-opacity="0" stroke="rgb(255,255,255)"
    ><rect x="0.5" y="0.5" clip-path="url(#clipPath8)" width="98.5" rx="16" ry="16" height="78.5" stroke="none"
    /></g
    ><g stroke-width="2" transform="translate(200,340)"
    ><rect x="0.5" y="0.5" clip-path="url(#clipPath8)" fill="none" width="98.5" rx="16" ry="16" height="78.5"
      /><text x="6" xml:space="preserve" y="15.625" clip-path="url(#clipPath8)" font-family="sans-serif" stroke="none"
      >192.168.100.1</text
      ><text x="12" y="44.125" clip-path="url(#clipPath8)" font-family="sans-serif" stroke="none" font-weight="bold" xml:space="preserve"
      >wg-client-1</text
      ><text x="9" xml:space="preserve" y="72.625" clip-path="url(#clipPath8)" font-family="sans-serif" stroke="none"
      >192.168.11.2</text
    ></g
    ><g stroke-width="2" transform="translate(610,430)"
    ><path fill="none" d="M10.5 10.5 L10.5 30.5" clip-path="url(#clipPath10)"
    /></g
    ><g stroke-width="2" transform="translate(410,430)"
    ><path fill="none" d="M10.5 10.5 L10.5 30.5" clip-path="url(#clipPath10)"
    /></g
    ><g stroke-width="3" transform="translate(370,430)"
    ><path fill="none" d="M10.5 10.5 L290.5 10.5" clip-path="url(#clipPath11)"
    /></g
    ><g stroke-width="3" transform="translate(30,430)"
    ><path fill="none" d="M10.5 10.5 L290.5 10.5" clip-path="url(#clipPath11)"
    /></g
    ><g transform="translate(270,20)"
    ><path fill="none" d="M10.5 49.5 L10.5 10.5" clip-path="url(#clipPath12)"
      /><path fill="none" d="M17 38.7417 L10.5 50 L4 38.7417" clip-path="url(#clipPath12)"
      /><text x="14" xml:space="preserve" y="30" clip-path="url(#clipPath12)" font-family="sans-serif" stroke="none"
      > port 443</text
    ></g
    ><g fill="blue" stroke-width="2" transform="translate(280,110)" stroke="blue"
    ><path fill="none" d="M10.5 10.5 L10.5 30.5" clip-path="url(#clipPath10)"
    /></g
    ><g stroke-width="2" transform="translate(70,430)"
    ><path fill="none" d="M10.5 10.5 L10.5 30.5" clip-path="url(#clipPath10)"
    /></g
    ><g fill="blue" stroke-width="2" transform="translate(380,110)" stroke="blue"
    ><path fill="none" d="M10.5 10.5 L10.5 30.5" clip-path="url(#clipPath10)"
    /></g
    ><g fill="blue" stroke-width="2" transform="translate(330,150)" stroke="blue"
    ><path fill="none" d="M10.5 10.5 L10.5 30.5" clip-path="url(#clipPath10)"
    /></g
    ><g stroke-width="2" transform="translate(430,410)"
    ><path fill="none" d="M10.5 10.5 L10.5 30.5" clip-path="url(#clipPath10)"
    /></g
    ><g stroke-width="2" transform="translate(510,430)"
    ><path fill="none" d="M10.5 10.5 L10.5 30.5" clip-path="url(#clipPath10)"
    /></g
    ><g stroke-width="2" transform="translate(240,410)"
    ><path fill="none" d="M10.5 10.5 L10.5 30.5" clip-path="url(#clipPath10)"
    /></g
    ><g stroke-width="2" transform="translate(270,430)"
    ><path fill="none" d="M10.5 10.5 L10.5 30.5" clip-path="url(#clipPath10)"
    /></g
    ><g stroke-width="2" transform="translate(170,430)"
    ><path fill="none" d="M10.5 10.5 L10.5 30.5" clip-path="url(#clipPath10)"
    /></g
    ><g stroke-linecap="butt" transform="translate(360,250)" fill="red" stroke-dasharray="8,5" stroke="red" stroke-width="2" stroke-miterlimit="5"
    ><path fill="none" d="M80.5 90.5 L10.5 10.5" clip-path="url(#clipPath13)"
    /></g
    ><g stroke-linecap="butt" transform="translate(240,250)" fill="red" stroke-dasharray="8,5" stroke="red" stroke-width="2" stroke-miterlimit="5"
    ><path fill="none" d="M10.5 90.5 L70.5 10.5" clip-path="url(#clipPath14)"
    /></g
  ></g
></svg
>
